{
  "EDITOR_STATE": {
    "allProjectFiles": {
      "b98e2d95-b87d-4258-8310-031d9a2b52b6": {
        "id": "b98e2d95-b87d-4258-8310-031d9a2b52b6",
        "parent": null,
        "name": "1219_crashproject3",
        "type": "DIRECTORY",
        "isDirectory": true,
        "children": [
          "cf818803-d658-477d-830f-076b249d8067",
          "40154ebb-65b8-4566-8903-545e0a9e84e5"
        ],
        "isRemovable": false,
        "filePath": "1219_crashproject3"
      },
      "cf818803-d658-477d-830f-076b249d8067": {
        "id": "cf818803-d658-477d-830f-076b249d8067",
        "parent": "b98e2d95-b87d-4258-8310-031d9a2b52b6",
        "name": "lambda.js",
        "type": "JS_LAMBDA",
        "isDirectory": false,
        "children": [],
        "isRemovable": true,
        "filePath": "1219_crashproject3/lambda.js",
        "config": {
          "runtime": "nodejs10.x",
          "handler": "handler",
          "timeout": 60,
          "memory": 128,
          "layers": []
        },
        "triggers": []
      },
      "40154ebb-65b8-4566-8903-545e0a9e84e5": {
        "id": "40154ebb-65b8-4566-8903-545e0a9e84e5",
        "parent": "b98e2d95-b87d-4258-8310-031d9a2b52b6",
        "name": "newhiru.json",
        "type": "JSON_FILE",
        "isDirectory": false,
        "children": [],
        "isRemovable": true,
        "filePath": "1219_crashproject3/newhiru.json"
      }
    },
    "rootNode": "b98e2d95-b87d-4258-8310-031d9a2b52b6",
    "openFiles": [
      "cf818803-d658-477d-830f-076b249d8067",
      "40154ebb-65b8-4566-8903-545e0a9e84e5"
    ],
    "currentFileId": "40154ebb-65b8-4566-8903-545e0a9e84e5",
    "resources": {},
    "customTemplate": {
      "dialect": null,
      "definitions": null
    },
    "envVariables": [
      {
        "lambdaId": "all",
        "varKey": "SIGMA_AWS_ACC_ID",
        "varValue": null,
        "shouldPersist": false,
        "displayOnly": false,
        "editable": false
      }
    ],
    "packageJSON": {
      "dependencies": {}
    }
  },
  "PROJECT_META": {
    "projectName": "1219_crashproject3",
    "projectDescription": "",
    "projectVersion": "1.0.0",
    "projectRegion": "us-east-1",
    "platform": "AWS",
    "platformRegions": {},
    "lastSave": 1576748911898
  },
  "VCS_STATE": {
    "provider": "BitBucket",
    "repo": {
      "name": "1219_crashproject3",
      "url": "https://bitbucket.org/hirudineeliyanage/1219_crashproject3"
    }
  }
}